# Data extracted from SKA-TEL-INSA-0000537 Rev 09
#
# Columns:
#
#   1) MeerKAT/SKA1 antenna number
#   2) Longitude (degrees)
#   3) Latitude (degrees)
#   4) Height (meters) [not actually meaningful yet]
#
# Note the first entry is the position of the centre of the array
# (assumed to be the same as antenna M000).
#
Centre	21.4438031	-30.7129252     0.00000
M000	21.443803	-30.712925	0.00000
M001	21.443901	-30.712605	0.00000
M002	21.443554	-30.713078	0.00000
M003	21.443195	-30.71288	0.00000
M004	21.442599	-30.713337	0.00000
M005	21.442824	-30.713609	0.00000
M006	21.443699	-30.71372	0.00000
M007	21.442954	-30.714688	0.00000
M008	21.442913	-30.715881	0.00000
M009	21.444227	-30.714402	0.00000
M010	21.444809	-30.715672	0.00000
M011	21.444766	-30.714231	0.00000
M012	21.445351	-30.714377	0.00000
M013	21.446361	-30.714604	0.00000
M014	21.44682	-30.713633	0.00000
M015	21.446088	-30.713032	0.00000
M016	21.446897	-30.712732	0.00000
M017	21.445973	-30.712068	0.00000
M018	21.444993	-30.713273	0.00000
M019	21.445672	-30.713628	0.00000
M020	21.444902	-30.713758	0.00000
M021	21.4408	-30.714007	0.00000
M022	21.439996	-30.711051	0.00000
M023	21.440525	-30.712338	0.00000
M024	21.440225	-30.709702	0.00000
M025	21.44199	-30.709021	0.00000
M026	21.442856	-30.710902	0.00000
M027	21.444312	-30.711264	0.00000
M028	21.443355	-30.711842	0.00000
M029	21.442963	-30.712175	0.00000
M030	21.445677	-30.710028	0.00000
M031	21.446463	-30.71021	0.00000
M032	21.448704	-30.709473	0.00000
M033	21.44995	-30.703264	0.00000
M034	21.447624	-30.711311	0.00000
M035	21.44792	-30.712687	0.00000
M036	21.447942	-30.713678	0.00000
M037	21.447859	-30.715198	0.00000
M038	21.446116	-30.716188	0.00000
M039	21.446538	-30.716396	0.00000
M040	21.443609	-30.717479	0.00000
M041	21.440888	-30.717023	0.00000
M042	21.440114	-30.715207	0.00000
M043	21.437315	-30.712213	0.00000
M044	21.434536	-30.70564	0.00000
M045	21.424759	-30.708649	0.00000
M046	21.428576	-30.695255	0.00000
M047	21.437853	-30.715721	0.00000
M048	21.414612	-30.686821	0.00000
M049	21.406253	-30.707114	0.00000
M050	21.422466	-30.718663	0.00000
M051	21.435014	-30.717994	0.00000
M052	21.437697	-30.721415	0.00000
M053	21.443987	-30.72282	0.00000
M054	21.452991	-30.715563	0.00000
M055	21.456433	-30.710185	0.00000
M056	21.460572	-30.706846	0.00000
M057	21.446964	-30.681656	0.00000
M058	21.473168	-30.686821	0.00000
M059	21.482364	-30.704206	0.00000
M060	21.479589	-30.727649	0.00000
M061	21.443718	-30.732013	0.00000
M062	21.428849	-30.733635	0.00000
M063	21.408191	-30.727649	0.00000
SKA001	21.449412	-30.71329	0.00000
SKA002	21.443214	-30.711544	0.00000
SKA003	21.442342	-30.710966	0.00000
SKA004	22.221828	-30.280881	0.00000
SKA005	20.893386	-30.262241	0.00000
SKA006	21.112343	-30.260672	0.00000
SKA007	21.28299	-30.303073	0.00000
SKA008	20.596389	-30.308528	0.00000
SKA009	21.422333	-30.361861	0.00000
SKA010	21.481185	-30.437353	0.00000
SKA011	22.162269	-30.501569	0.00000
SKA012	21.536952	-30.495238	0.00000
SKA013	21.576635	-30.56085	0.00000
SKA014	21.568196	-30.622317	0.00000
SKA015	21.374214	-30.638584	0.00000
SKA016	21.325844	-30.643727	0.00000
SKA017	21.406331	-30.642963	0.00000
SKA018	21.425892	-30.653862	0.00000
SKA019	21.276855	-30.658922	0.00000
SKA020	21.451767	-30.659316	0.00000
SKA021	22.04672	-30.65899	0.00000
SKA022	21.573851	-30.669603	0.00000
SKA023	21.460885	-30.674468	0.00000
SKA024	21.462108	-30.686657	0.00000
SKA025	21.23088	-30.68665	0.00000
SKA026	21.464027	-30.692349	0.00000
SKA027	21.551131	-30.694973	0.00000
SKA028	21.43018	-30.70076	0.00000
SKA029	21.434492	-30.701264	0.00000
SKA030	21.439049	-30.702356	0.00000
SKA031	21.421559	-30.702581	0.00000
SKA032	21.464587	-30.702805	0.00000
SKA033	21.44447	-30.704982	0.00000
SKA034	21.413573	-30.706149	0.00000
SKA035	21.440989	-30.706517	0.00000
SKA036	21.445301	-30.707819	0.00000
SKA037	21.462229	-30.708744	0.00000
SKA038	21.440591	-30.708913	0.00000
SKA039	21.443686	-30.709254	0.00000
SKA040	21.435079	-30.708993	0.00000
SKA041	21.441639	-30.710689	0.00000
SKA042	21.44512	-30.711168	0.00000
SKA043	21.43909	-30.711278	0.00000
SKA044	21.443764	-30.711281	0.00000
SKA045	21.45228	-30.711729	0.00000
SKA046	21.444359	-30.711825	0.00000
SKA047	21.440543	-30.711918	0.00000
SKA048	21.442356	-30.712025	0.00000
SKA049	21.443574	-30.712107	0.00000
SKA050	21.444438	-30.712193	0.00000
SKA051	21.443917	-30.712207	0.00000
SKA052	21.442626	-30.712211	0.00000
SKA053	21.443323	-30.712317	0.00000
SKA054	21.447335	-30.712406	0.00000
SKA055	21.441659	-30.712409	0.00000
SKA056	21.443668	-30.712428	0.00000
SKA057	21.442969	-30.71245	0.00000
SKA058	21.442251	-30.712485	0.00000
SKA059	21.444228	-30.712544	0.00000
SKA060	21.40524	-30.712547	0.00000
SKA061	21.445672	-30.712552	0.00000
SKA062	21.44328	-30.712597	0.00000
SKA063	21.435243	-30.712648	0.00000
SKA064	21.442604	-30.712715	0.00000
SKA065	21.442939	-30.712722	0.00000
SKA066	21.444511	-30.71285	0.00000
SKA067	21.445117	-30.712941	0.00000
SKA068	21.441913	-30.71295	0.00000
SKA069	21.442686	-30.712981	0.00000
SKA070	21.458393	-30.712991	0.00000
SKA071	21.444106	-30.712991	0.00000
SKA072	21.442338	-30.713089	0.00000
SKA073	21.443222	-30.713174	0.00000
SKA074	21.442917	-30.713281	0.00000
SKA075	21.443936	-30.713328	0.00000
SKA076	21.444288	-30.713364	0.00000
SKA077	21.440038	-30.713405	0.00000
SKA078	21.442263	-30.713413	0.00000
SKA079	21.443595	-30.713434	0.00000
SKA080	21.443255	-30.713481	0.00000
SKA081	21.444612	-30.713603	0.00000
SKA082	21.44405	-30.713665	0.00000
SKA083	21.437757	-30.713717	0.00000
SKA084	21.441878	-30.713786	0.00000
SKA085	21.442481	-30.713809	0.00000
SKA086	21.443404	-30.713858	0.00000
SKA087	21.442744	-30.714023	0.00000
SKA088	21.443683	-30.714159	0.00000
SKA089	21.445795	-30.714161	0.00000
SKA090	21.44105	-30.714684	0.00000
SKA091	21.443552	-30.714778	0.00000
SKA092	21.447484	-30.714879	0.00000
SKA093	21.442161	-30.714887	0.00000
SKA094	21.444252	-30.715123	0.00000
SKA095	21.439897	-30.715681	0.00000
SKA096	21.455538	-30.715743	0.00000
SKA097	21.443939	-30.716027	0.00000
SKA098	21.437642	-30.716174	0.00000
SKA099	21.444992	-30.716377	0.00000
SKA100	21.449036	-30.717223	0.00000
SKA101	21.444662	-30.718358	0.00000
SKA102	21.436356	-30.718739	0.00000
SKA103	21.440217	-30.719265	0.00000
SKA104	21.447266	-30.720233	0.00000
SKA105	21.532299	-30.723754	0.00000
SKA106	21.432849	-30.720913	0.00000
SKA107	21.3975	-30.722426	0.00000
SKA108	21.433899	-30.725179	0.00000
SKA109	21.437646	-30.729515	0.00000
SKA110	21.511124	-30.73479	0.00000
SKA111	21.442417	-30.734251	0.00000
SKA112	21.18377	-30.728811	0.00000
SKA113	21.391708	-30.736333	0.00000
SKA114	21.452432	-30.739759	0.00000
SKA115	21.493833	-30.736932	0.00000
SKA116	21.460272	-30.742016	0.00000
SKA117	21.472848	-30.736715	0.00000
SKA118	21.394676	-30.752293	0.00000
SKA119	21.397161	-30.778551	0.00000
SKA120	21.887418	-30.75981	0.00000
SKA121	21.41272	-30.80198	0.00000
SKA122	21.14482	-30.809841	0.00000
SKA123	21.423691	-30.841585	0.00000
SKA124	21.804492	-30.84449	0.00000
SKA125	21.458958	-30.86529	0.00000
SKA126	21.508972	-30.879667	0.00000
SKA127	21.697338	-30.883676	0.00000
SKA128	21.635612	-30.869177	0.00000
SKA129	21.108905	-30.910611	0.00000
SKA130	21.077184	-31.041894	0.00000
SKA131	21.169521	-31.201255	0.00000
SKA132	21.267511	-31.337997	0.00000
SKA133	21.499014	-31.519592	0.00000
